0.1875 0 0.5244518974381922 0.21439505255776334 0.11132989488748639
0.0967741935483871 0 0.13970830982744764 0.029477430609130228 0.007900324942634014
0.04918032786885246 0 0.03608161401348488 0.003868879488929024 0.0005269536167103398
0.024793388429752067 0 0.0091701171876359 0.0004956996317239987 3.4036919568293084E-05
