0.44721359549995787 0.023940855985537447 0.0032144940105414315 0.0008750016444413794 0.0003778250186566546
0.22360679774997894 0.013459432541728093 0.0006497499506191621 0.00012598447060909864 3.4810946135390846E-05
0.11180339887498954 0.00700320450523279 0.0002075701090410999 3.5726850023537516E-05 1.0309590300542094E-05
0 0 0 0 0
