0.017377807511561927
0.016742588214778704
0.016344412180746816
0.015656885294784498
0.013394155005807656
0.010837777249624696
0.010088185380933241
0.009796255127527527
0.00925612122239503
0.008279715366452932
0.007004025149085655
0.0070220749464467375
0.006987304115591963
0.0069842875650836245
0.006991586332723492
0.006992254880281011
0.007000162467347849
0.007001007911051251
0.0070048628775335785
0.007005776241233975
0.007005757816203077
0.007004987854067497
0.007004499456326664
0.007004946944669843
0.007003094516952279
0.0070029798160347444
0.007003393537006348
0.007003463090915509
0.007003189689502501
0.007004257333587293
0.007004520986788696
0.007004272247097313
0.0070038506101519965
0.0070039229854202715
0.007003906425197277
0.00700390374536053
0.007003930529353082
0.007003801883026008
0.007003761005848702
0.007003687838883405
0.007003321897309591
0.00700332486176117
0.0070033278211132175
0.00700320206700092
0.0070031723035820816
0.007003151969980567
0.0070031521746028325
0.007003183358613594
0.007003226171600408
0.007003210103856591
0.007003211783293501
0.007003208679518852
0.007003206017578923
0.007003204435154433
0.007003204458960351
0.007003204351582845
0.007003203883426275
0.007003204505232313
0.005144996191092728
0.00400303178327544
0.002965624883250494
0.002955820151550825
0.0029500266549814247
0.0022204293934890433
0.0015487152587881155
0.0009862235776565544
0.0003442239115063874
0.000223064704626376
0.00020854228729316109
0.00020776619484288558
0.00020773213846683378
0.0002076230067581713
0.00020791624553857517
0.00020776379315084114
0.00020761534988827948
0.00020761740065896946
0.00020759104293404862
0.00020768453011840474
0.00020755731904026177
0.00020757125413738256
0.0002075412628768874
0.00020760486966483666
0.0002075501125574675
0.00020758623256215806
0.00020757586741718153
0.0002075548350201594
0.00020758367916207194
0.000207562136490997
0.00020760369648930443
0.00020759668884474508
0.00020758516117071416
0.00020758137901588655
0.00020756876628652982
0.00020758156779222494
0.00020757358436649005
0.00020756819182627035
0.0002075661573860267
0.0002075716426385705
0.00020756560075018557
0.00020756591509174763
0.00020756594700363666
0.00020756287158326802
0.00020757051338416766
0.00020756646845429455
0.00020756713431129454
0.00020756635692645214
0.00020757128339114425
0.0002075681133518826
0.00020757354659330695
0.0002075714303742706
0.0002075708313831106
0.00020757019497389607
0.00020756809883609292
0.00020756859397039892
0.00020756970479478937
0.00020757145888286878
0.00020756961989293625
0.00020757000882339375
0.00020757075331620173
0.00020757097311283225
0.0002075700709981489
0.0002075722447646782
0.00020757126845896825
0.00020757040454499792
0.00020757006129393327
0.00020757009465113352
0.0002075701090410999
4.194351380532303E-05
4.1479807996608105E-05
3.593488000943936E-05
3.5909368404369786E-05
3.580704472676449E-05
3.585641687234515E-05
3.5752228335930356E-05
3.576135043686381E-05
3.573439480109423E-05
3.5726532555612046E-05
3.572561256778539E-05
3.572917406683232E-05
3.572377077168761E-05
3.572043980641353E-05
3.572213422168494E-05
3.572284031590063E-05
3.5726154503677176E-05
3.572542951083518E-05
3.572531931644937E-05
3.572524427366525E-05
3.5725414666772003E-05
3.57253712604459E-05
3.5725368622268304E-05
3.572574897780466E-05
3.572595567619933E-05
3.572588041191327E-05
3.5725891227034224E-05
3.57265195111941E-05
3.5726445340786576E-05
3.572657513572528E-05
3.572654665765923E-05
3.572659839110004E-05
3.572660006883017E-05
3.5726685997163524E-05
3.5726677070677075E-05
3.572663229229295E-05
3.5726789251229045E-05
3.5726844387181666E-05
3.572683299825318E-05
3.5726765441652976E-05
3.57267790561169E-05
3.572690934551292E-05
3.572673757540263E-05
3.572674166167129E-05
3.572704106317774E-05
3.5727009528390154E-05
3.5727010624839135E-05
3.57269560330847E-05
3.572693047150478E-05
3.572696796962835E-05
3.5726940301004496E-05
3.57269323940905E-05
3.5726850023537516E-05
1.022530345381586E-05
1.034210498921676E-05
1.0340237879134269E-05
1.0312041171719834E-05
1.0305142379247114E-05
1.0307311855848807E-05
1.0304216038725163E-05
1.0304920077028785E-05
1.0310391164768116E-05
1.0309590300542094E-05
